module bitbucket.org/Makushin/ansible-dns-inventory/src/master

go 1.15

require (
	github.com/miekg/dns v1.1.39
	github.com/pkg/errors v0.9.1
	github.com/spf13/viper v1.7.1
	gopkg.in/validator.v2 v2.0.0-20200605151824-2b28d334fa05
	gopkg.in/yaml.v2 v2.4.0
)
